{
  "activeSlotsCoeff": 0.1,
  "protocolParams": {
    "poolDeposit": 500000000,
    "protocolVersion": {
      "minor": 0,
      "major": 2
    },
    "minUTxOValue": 1,
    "decentralisationParam": 0.8,
    "maxTxSize": 16384,
    "minPoolCost": 0,
    "minFeeA": 44,
    "maxBlockBodySize": 65536,
    "minFeeB": 155381,
    "eMax": 18,
    "extraEntropy": {
      "tag": "NeutralNonce"
    },
    "maxBlockHeaderSize": 1100,
    "keyDeposit": 400000,
    "nOpt": 10,
    "rho": 0.0022,
    "tau": 0.05,
    "a0": 0.3
  },
  "protocolMagicId": 42,
  "genDelegs": {},
  "updateQuorum": 3,
  "networkId": "Testnet",
  "initialFunds": {},
  "maxLovelaceSupply": 45000000000000000,
  "networkMagic": 42,
  "epochLength": 1000,
  "staking": {
    "pools": {},
    "stake": {}
  },
  "systemStart": "2020-07-08T02:39:16.033076859Z",
  "slotsPerKESPeriod": 129600,
  "slotLength": 0.2,
  "maxKESEvolutions": 64,
  "securityParam": 10,
  "adaPerUTxOWord": 0,
  "executionPrices": {"prMem": 1, "prSteps": 1},
  "maxTxExUnits": {"exUnitsMem": 1, "exUnitsSteps": 1},
  "maxBlockExUnits": {"exUnitsMem": 1, "exUnitsSteps": 1},
  "maxValueSize": 1000,
  "collateralPercentage": 100,
  "maxCollateralInputs": 1,
  "costModels": "shelley/alonzo/shelley_qa_cost-model.json"
}
